<?xml version="1.0" encoding="UTF-8" standalone="no"?>
<svg
   width="16"
   height="16"
   version="1.1"
   id="svg18"
   sodipodi:docname="symmetry-half-symbolic.svg"
   inkscape:version="1.1.1 (3bf5ae0d25, 2021-09-20)"
   xmlns:inkscape="http://www.inkscape.org/namespaces/inkscape"
   xmlns:sodipodi="http://sodipodi.sourceforge.net/DTD/sodipodi-0.dtd"
   xmlns="http://www.w3.org/2000/svg"
   xmlns:svg="http://www.w3.org/2000/svg">
  <defs
     id="defs22" />
  <sodipodi:namedview
     id="namedview20"
     pagecolor="#505050"
     bordercolor="#eeeeee"
     borderopacity="1"
     inkscape:pageshadow="0"
     inkscape:pageopacity="0"
     inkscape:pagecheckerboard="0"
     showgrid="false"
     inkscape:zoom="48.5"
     inkscape:cx="7.9896907"
     inkscape:cy="8"
     inkscape:window-width="2560"
     inkscape:window-height="1371"
     inkscape:window-x="0"
     inkscape:window-y="0"
     inkscape:window-maximized="1"
     inkscape:current-layer="svg18" />
  <g
     color="#000000"
     fill="#474747"
     id="g16"
     transform="rotate(90,7.9990168,8.0009838)">
    <path
       d="M 1.984,8.986 A 1,1 0 0 0 1,10 v 4 a 1,1 0 0 0 1,1 H 6 A 1,1 0 1 0 6,13 H 3 V 10 A 1,1 0 0 0 1.984,8.986 Z"
       style="line-height:normal;font-variant-ligatures:normal;font-variant-position:normal;font-variant-caps:normal;font-variant-numeric:normal;font-variant-alternates:normal;font-feature-settings:normal;text-indent:0;text-align:start;text-decoration-line:none;text-decoration-style:solid;text-decoration-color:#000000;text-transform:none;text-orientation:mixed;shape-padding:0;isolation:auto;mix-blend-mode:normal;marker:none"
       font-weight="400"
       font-family="sans-serif"
       overflow="visible"
       id="path2" />
    <path
       d="M 6.48,8.49 A 1,1 0 0 0 5.793,8.793 l -4.5,4.5 a 1,1 0 1 0 1.414,1.414 l 4.5,-4.5 A 1,1 0 0 0 6.48,8.49 Z"
       style="line-height:normal;font-variant-ligatures:normal;font-variant-position:normal;font-variant-caps:normal;font-variant-numeric:normal;font-variant-alternates:normal;font-feature-settings:normal;text-indent:0;text-align:start;text-decoration-line:none;text-decoration-style:solid;text-decoration-color:#000000;text-transform:none;text-orientation:mixed;shape-padding:0;isolation:auto;mix-blend-mode:normal;marker:none"
       font-weight="400"
       font-family="sans-serif"
       overflow="visible"
       id="path4" />
    <path
       d="m 1,14 h 1 v 1 H 1 Z"
       style="marker:none"
       overflow="visible"
       id="path6" />
    <path
       d="m 10,1 a 1,1 0 1 0 0,2 h 3 v 3 a 1,1 0 1 0 2,0 V 2 A 1,1 0 0 0 14,1 Z"
       style="line-height:normal;font-variant-ligatures:normal;font-variant-position:normal;font-variant-caps:normal;font-variant-numeric:normal;font-variant-alternates:normal;font-feature-settings:normal;text-indent:0;text-align:start;text-decoration-line:none;text-decoration-style:solid;text-decoration-color:#000000;text-transform:none;text-orientation:mixed;shape-padding:0;isolation:auto;mix-blend-mode:normal;marker:none"
       font-weight="400"
       font-family="sans-serif"
       overflow="visible"
       id="path8" />
    <path
       d="m 14,1 h 1 v 1 h -1 z"
       style="marker:none"
       overflow="visible"
       id="path10" />
    <path
       d="m 13.984,0.99 a 1,1 0 0 0 -0.69,0.301 l -4.5,4.469 a 1.0002056,1.0002056 0 1 0 1.411,1.418 l 4.5,-4.469 A 1,1 0 0 0 13.985,0.99 Z"
       style="line-height:normal;font-variant-ligatures:normal;font-variant-position:normal;font-variant-caps:normal;font-variant-numeric:normal;font-variant-alternates:normal;font-feature-settings:normal;text-indent:0;text-align:start;text-decoration-line:none;text-decoration-style:solid;text-decoration-color:#000000;text-transform:none;text-orientation:mixed;shape-padding:0;isolation:auto;mix-blend-mode:normal;marker:none"
       font-weight="400"
       font-family="sans-serif"
       overflow="visible"
       id="path12" />
    <path
       d="m 1,9 h 1 v 1 H 1 Z m 5,5 h 1 v 1 H 6 Z m 8,-8 h 1 V 7 H 14 Z M 9,1 h 1 V 2 H 9 Z"
       style="marker:none"
       overflow="visible"
       id="path14" />
  </g>
</svg>
